…
The result comes back as a list of four tidy data frames:

1.  `mixing_proportions`: the mixing proportions. The column `pi` holds the estimated mixing proportion for each collection.
2.  `indiv_posteriors`: this holds, for each individual, the posterior means of group membership in each collection. Column `PofZ` holds those values. It also includes `n_non_miss_loci` and `n_miss_loci` which are the number of observed loci and the number of missing loci at the individual.
3.  `mix_prop_traces:` MCMC traces of the mixing proportions for each collection.
4.  `bootstrapped_proportions`: This is NULL in the above example, but if we had chosen `method = "PB"` then this would be a tibble of bootstrap-corrected reporting unit mixing proportions.

These data frames look like this:

``` r
mix_est
#> $mixing_proportions
#> # A tibble: 207 x 4
#>    mixture_collection         repunit      collection           pi
#>                 <chr>           <chr>           <chr>        <dbl>
#>  1               rec2 CentralValleyfa    Feather_H_sp 8.039951e-02
#>  2               rec2 CentralValleyfa    Feather_H_fa 6.443917e-05
#>  3               rec2 CentralValleyfa     Butte_Cr_fa 3.148164e-05
#>  4               rec2 CentralValleyfa      Mill_Cr_fa 7.518091e-05
#>  5               rec2 CentralValleyfa      Deer_Cr_fa 3.514294e-04
#>  6               rec2 CentralValleyfa  Mokelumne_R_fa 1.511541e-01
#>  7               rec2 CentralValleyfa       Battle_Cr 4.074756e-01
#>  8               rec2 CentralValleyfa Sacramento_R_lf 2.195673e-03
#>  9               rec2 CentralValleysp     Butte_Cr_Sp 1.008511e-02
#> 10               rec2 CentralValleysp      Mill_Cr_sp 6.685205e-02
#> # ... with 197 more rows
#> 
#> $indiv_posteriors
#> # A tibble: 155,664 x 7
#>    mixture_collection   indiv         repunit      collection         PofZ
#>                 <chr>   <chr>           <chr>           <chr>        <dbl>
#>  1               rec2 T124711 CentralValleyfa    Feather_H_sp 1.844615e-28
#>  2               rec2 T124711 CentralValleyfa    Feather_H_fa 4.117472e-33
#>  3               rec2 T124711 CentralValleyfa     Butte_Cr_fa 6.610946e-29
#>  4               rec2 T124711 CentralValleyfa      Mill_Cr_fa 4.270191e-28
#>  5               rec2 T124711 CentralValleyfa      Deer_Cr_fa 1.570599e-29
#>  6               rec2 T124711 CentralValleyfa  Mokelumne_R_fa 9.977711e-28
#>  7               rec2 T124711 CentralValleyfa       Battle_Cr 1.542613e-24
#>  8               rec2 T124711 CentralValleyfa Sacramento_R_lf 4.110865e-29
#>  9               rec2 T124711 CentralValleysp     Butte_Cr_Sp 3.319884e-28
#> 10               rec2 T124711 CentralValleysp      Mill_Cr_sp 1.845840e-27
#> # ... with 155,654 more rows, and 2 more variables: n_non_miss_loci <dbl>,
#> #   n_miss_loci <dbl>
#> 
#> $mix_prop_traces
#> # A tibble: 414,000 x 5
#>    mixture_collection sweep         repunit      collection         pi
#>                 <chr> <int>           <chr>           <chr>      <dbl>
#>  1               rec2     1 CentralValleyfa    Feather_H_sp 0.01449275
#>  2               rec2     1 CentralValleyfa    Feather_H_fa 0.01449275
#>  3               rec2     1 CentralValleyfa     Butte_Cr_fa 0.01449275
#>  4               rec2     1 CentralValleyfa      Mill_Cr_fa 0.01449275
#>  5               rec2     1 CentralValleyfa      Deer_Cr_fa 0.01449275
#>  6               rec2     1 CentralValleyfa  Mokelumne_R_fa 0.01449275
#>  7               rec2     1 CentralValleyfa       Battle_Cr 0.01449275
#>  8               rec2     1 CentralValleyfa Sacramento_R_lf 0.01449275
#>  9               rec2     1 CentralValleysp     Butte_Cr_Sp 0.01449275
#> 10               rec2     1 CentralValleysp      Mill_Cr_sp 0.01449275
#> # ... with 413,990 more rows
…
