Bayesian Inference from the Conditional Genetic Stock Identification Model • rubias
…
# see that that looks like:
matchy_pairs %>%
  arrange(desc(num_non_miss), desc(num_match))
#> # A tibble: 33 × 10
#>    num_non_miss num_match indiv_1            indiv_2   collection_1 collection_2
#>           <int>     <int> <chr>              <chr>     <chr>        <chr>       
#>  1           91        91 T124864            T124866   rec3         rec1        
#>  2           91        91 T124864            T125335   rec3         rec3        
#>  3           91        91 T124866            T125335   rec1         rec3        
#>  4           91        91 T126402            T126403   rec2         rec2        
#>  5           91        90 Mill_Cr_sp:0060    Mill_Cr_… Mill_Cr_sp   Mill_Cr_sp  
#>  6           91        90 Cole_Rivers_H:0002 Cole_Riv… Cole_Rivers… Cole_Rivers…
#>  7           91        90 Cole_Rivers_H:0017 Cole_Riv… Cole_Rivers… Cole_Rivers…
#>  8           91        90 Umpqua_sp:0009     Umpqua_s… Umpqua_sp    Umpqua_sp   
#>  9           91        90 Umpqua_sp:0018     Umpqua_s… Umpqua_sp    Umpqua_sp   
#> 10           91        90 T125044            T125337   rec2         rec1        
#> # ℹ 23 more rows
#> # ℹ 4 more variables: sample_type_1 <chr>, repunit_1 <chr>,
#> #   sample_type_2 <chr>, repunit_2 <chr>
…
# see that that looks like:
matchy_pairs2 %>%
  arrange(desc(num_non_miss), desc(num_match))
#> # A tibble: 46 × 10
#>    num_non_miss num_match indiv_1            indiv_2   collection_1 collection_2
#>           <int>     <int> <chr>              <chr>     <chr>        <chr>       
#>  1           91        91 T124864            T124866   rec3         rec1        
#>  2           91        91 T124864            T125335   rec3         rec3        
#>  3           91        91 T124866            T125335   rec1         rec3        
#>  4           91        91 T126402            T126403   rec2         rec2        
#>  5           91        90 Mill_Cr_sp:0060    Mill_Cr_… Mill_Cr_sp   Mill_Cr_sp  
#>  6           91        90 Cole_Rivers_H:0002 Cole_Riv… Cole_Rivers… Cole_Rivers…
#>  7           91        90 Cole_Rivers_H:0017 Cole_Riv… Cole_Rivers… Cole_Rivers…
#>  8           91        90 Umpqua_sp:0009     Umpqua_s… Umpqua_sp    Umpqua_sp   
#>  9           91        90 Umpqua_sp:0018     Umpqua_s… Umpqua_sp    Umpqua_sp   
#> 10           91        90 T125044            T125337   rec2         rec1        
#> # ℹ 36 more rows
#> # ℹ 4 more variables: sample_type_1 <chr>, repunit_1 <chr>,
#> #   sample_type_2 <chr>, repunit_2 <chr>
…
Now, you can look at the self assignment results:

head(sa_chinook, n = 100)
#> # A tibble: 100 × 11
#>    indiv             collection   repunit   inferred_collection inferred_repunit
#>    <chr>             <chr>        <chr>     <chr>               <chr>           
#>  1 Feather_H_sp:0001 Feather_H_sp CentralV… Feather_H_sp        CentralValleyfa 
#>  2 Feather_H_sp:0001 Feather_H_sp CentralV… Feather_H_fa        CentralValleyfa 
#>  3 Feather_H_sp:0001 Feather_H_sp CentralV… Butte_Cr_fa         CentralValleyfa 
#>  4 Feather_H_sp:0001 Feather_H_sp CentralV… Mill_Cr_sp          CentralValleysp 
#>  5 Feather_H_sp:0001 Feather_H_sp CentralV… Mill_Cr_fa          CentralValleyfa 
#>  6 Feather_H_sp:0001 Feather_H_sp CentralV… UpperSacramento_R_… CentralValleysp 
#>  7 Feather_H_sp:0001 Feather_H_sp CentralV… Deer_Cr_sp          CentralValleysp 
#>  8 Feather_H_sp:0001 Feather_H_sp CentralV… Butte_Cr_Sp         CentralValleysp 
#>  9 Feather_H_sp:0001 Feather_H_sp CentralV… Battle_Cr           CentralValleyfa 
#> 10 Feather_H_sp:0001 Feather_H_sp CentralV… Mokelumne_R_fa      CentralValleyfa 
#> # ℹ 90 more rows
#> # ℹ 6 more variables: scaled_likelihood <dbl>, log_likelihood <dbl>,
#> #   z_score <dbl>, n_non_miss_loci <int>, n_miss_loci <int>,
#> #   missing_loci <list>

The log_likelihood is the log probability of the fish’s genotype given it is from the inferred_collection computed using leave-one-out. The scaled_likelihood is the posterior prob of assigning the fish to the inferred_collection given an equal prior on every collection in the reference. Other columns are as in the output for infer_mixture(). Note that the z_score computed here can be used to assess the distribution of the z_score statistic for fish from known, reference populations. This can be used to compare to values obtained in mixed fisheries.

The output can be summarized by repunit as was done above:

sa_to_repu <- sa_chinook %>%
  group_by(indiv, collection, repunit, inferred_repunit) %>%
  summarise(repu_scaled_like = sum(scaled_likelihood))
#> `summarise()` has grouped output by 'indiv', 'collection', 'repunit'. You can
#> override using the `.groups` argument.

head(sa_to_repu, n = 200)
#> # A tibble: 200 × 5
#> # Groups:   indiv, collection, repunit [6]
#>    indiv        collection repunit      inferred_repunit repu_scaled_like
#>    <chr>        <chr>      <chr>        <chr>                       <dbl>
#>  1 Alsea_R:0001 Alsea_R    NOregonCoast CaliforniaCoast          3.72e- 8
#>  2 Alsea_R:0001 Alsea_R    NOregonCoast CentralValleyfa          1.54e-14
#>  3 Alsea_R:0001 Alsea_R    NOregonCoast CentralValleysp          8.12e-15
#>  4 Alsea_R:0001 Alsea_R    NOregonCoast CentralValleywi          1.22e-23
#>  5 Alsea_R:0001 Alsea_R    NOregonCoast CohoSp                   2.09e-52
#>  6 Alsea_R:0001 Alsea_R    NOregonCoast CopperR                  3.08e-20
#>  7 Alsea_R:0001 Alsea_R    NOregonCoast DeschutesRfa             3.81e-10
#>  8 Alsea_R:0001 Alsea_R    NOregonCoast EVancouverIs             1.02e- 8
#>  9 Alsea_R:0001 Alsea_R    NOregonCoast KlamathR                 1.11e-11
#> 10 Alsea_R:0001 Alsea_R    NOregonCoast LColumbiaRfa             8.52e- 8
#> # ℹ 190 more rows
…
Additionally, there are constraints on the mixing proportions that can be simulated because of variation in the number of fish from each collection in the reference.

Both of the functions take two required arguments: 1) a data frame of reference genetic data, and 2) the number of the column in which the genetic data start.

Here we use the chinook data to simulate 50 mixture samples of size 200 fish using the default values (Dirichlet parameters of 1.5 for each reporting unit, and Dirichlet parameters of 1.5 for each collection within a reporting unit…)

chin_sims <- assess_reference_loo(reference = chinook, 
                     gen_start_col = 5, 
                     reps = 50, 
                     mixsize = 200)

Here is what the output looks like:

chin_sims
#> # A tibble: 3,450 × 9
#>    repunit_scenario collection_scenario  iter repunit   collection true_pi     n
#>    <chr>            <chr>               <int> <chr>     <chr>        <dbl> <dbl>
#>  1 1                1                       1 CentralV… Feather_H… 8.42e-4     0
#>  2 1                1                       1 CentralV… Butte_Cr_… 6.55e-4     0
#>  3 1                1                       1 CentralV… Mill_Cr_sp 1.37e-3     0
#>  4 1                1                       1 CentralV… Deer_Cr_sp 4.41e-3     1
#>  5 1                1                       1 CentralV… UpperSacr… 6.25e-4     0
#>  6 1                1                       1 CentralV… Feather_H… 2.89e-3     2
#>  7 1                1                       1 CentralV… Butte_Cr_… 8.50e-4     0
#>  8 1                1                       1 CentralV… Mill_Cr_fa 2.86e-3     1
#>  9 1                1                       1 CentralV… Deer_Cr_fa 6.53e-3     0
#> 10 1                1                       1 CentralV… Mokelumne… 8.99e-4     0
#> # ℹ 3,440 more rows
#> # ℹ 2 more variables: post_mean_pi <dbl>, mle_pi <dbl>
…
# print out the indiv posteriors
chin_sims_with_indivs$indiv_posteriors
#> # A tibble: 690,000 × 9
#>    repunit_scenario collection_scenario  iter indiv simulated_repunit
#>    <chr>            <chr>               <int> <int> <chr>            
#>  1 1                1                       1     1 CentralValleyfa  
#>  2 1                1                       1     1 CentralValleyfa  
#>  3 1                1                       1     1 CentralValleyfa  
#>  4 1                1                       1     1 CentralValleyfa  
#>  5 1                1                       1     1 CentralValleyfa  
#>  6 1                1                       1     1 CentralValleyfa  
#>  7 1                1                       1     1 CentralValleyfa  
#>  8 1                1                       1     1 CentralValleyfa  
#>  9 1                1                       1     1 CentralValleyfa  
#> 10 1                1                       1     1 CentralValleyfa  
#> # ℹ 689,990 more rows
#> # ℹ 4 more variables: simulated_collection <chr>, repunit <chr>,
#> #   collection <chr>, PofZ <dbl>
…
#> Doing LOO simulations rep 5 of 5
#> ++++ Starting in on repunit_scenario All-NCaliforniaSOregonCoast with collection scenario 1 ++++
#> Doing LOO simulations rep 1 of 5
#> Doing LOO simulations rep 2 of 5
#> Doing LOO simulations rep 3 of 5
#> Doing LOO simulations rep 4 of 5
#> Doing LOO simulations rep 5 of 5
#> ++++ Starting in on repunit_scenario All-UColumbiaRsufa with collection scenario 1 ++++
#> Doing LOO simulations rep 1 of 5
#> Doing LOO simulations rep 2 of 5
#> Doing LOO simulations rep 3 of 5
#> Doing LOO simulations rep 4 of 5
#> Doing LOO simulations rep 5 of 5
repu_hundy_results
#> # A tibble: 2,070 × 9
#>    repunit_scenario   collection_scenario  iter repunit collection true_pi     n
#>    <chr>              <chr>               <int> <chr>   <chr>        <dbl> <dbl>
#>  1 All-CentralValley… 1                       1 Centra… Feather_H…   0.100     5
#>  2 All-CentralValley… 1                       1 Centra… Butte_Cr_…   0         0
#>  3 All-CentralValley… 1                       1 Centra… Mill_Cr_sp   0         0
#>  4 All-CentralValley… 1                       1 Centra… Deer_Cr_sp   0         0
#>  5 All-CentralValley… 1                       1 Centra… UpperSacr…   0         0
#>  6 All-CentralValley… 1                       1 Centra… Feather_H…   0.141     5
#>  7 All-CentralValley… 1                       1 Centra… Butte_Cr_…   0.100     5
#>  8 All-CentralValley… 1                       1 Centra… Mill_Cr_fa   0.140     5
#>  9 All-CentralValley… 1                       1 Centra… Deer_Cr_fa   0.193    14
#> 10 All-CentralValley… 1                       1 Centra… Mokelumne…   0.102     5
#> # ℹ 2,060 more rows
#> # ℹ 2 more variables: post_mean_pi <dbl>, mle_pi <dbl>
…
So, now make a list of those with 100% specifications in the tibbles:

hundy_coll_list <- lapply(hundy_colls, function(x) tibble(collection = x, ppn = 1.0)) %>%
  setNames(paste("100%", hundy_colls, sep = "_"))

Then, do it:

hundy_coll_results <- assess_reference_loo(reference = chinook, 
                     gen_start_col = 5, 
                     reps = 6, 
                     mixsize = 50,
                     alpha_collection = hundy_coll_list)
hundy_coll_results
#> # A tibble: 2,070 × 9
#>    repunit_scenario collection_scenario  iter repunit   collection true_pi     n
#>    <chr>            <chr>               <int> <chr>     <chr>        <dbl> <dbl>
#>  1 1                100%_Deer_Cr_fa         1 CentralV… Feather_H…       0     0
#>  2 1                100%_Deer_Cr_fa         1 CentralV… Butte_Cr_…       0     0
#>  3 1                100%_Deer_Cr_fa         1 CentralV… Mill_Cr_sp       0     0
#>  4 1                100%_Deer_Cr_fa         1 CentralV… Deer_Cr_sp       0     0
#>  5 1                100%_Deer_Cr_fa         1 CentralV… UpperSacr…       0     0
#>  6 1                100%_Deer_Cr_fa         1 CentralV… Feather_H…       0     0
#>  7 1                100%_Deer_Cr_fa         1 CentralV… Butte_Cr_…       0     0
#>  8 1                100%_Deer_Cr_fa         1 CentralV… Mill_Cr_fa       0     0
#>  9 1                100%_Deer_Cr_fa         1 CentralV… Deer_Cr_fa       1    50
#> 10 1                100%_Deer_Cr_fa         1 CentralV… Mokelumne…       0     0
#> # ℹ 2,060 more rows
#> # ℹ 2 more variables: post_mean_pi <dbl>, mle_pi <dbl>
…
