An Overview of rubias Usage • rubias
…
Now, you can look at the self assignment results:

head(sa_chinook, n = 100)

## # A tibble: 100 × 11
##    indiv             collection   repunit   inferred_collection inferred_repunit
##    <chr>             <chr>        <chr>     <chr>               <chr>           
##  1 Feather_H_sp:0001 Feather_H_sp CentralV… Feather_H_sp        CentralValleyfa 
##  2 Feather_H_sp:0001 Feather_H_sp CentralV… Feather_H_fa        CentralValleyfa 
##  3 Feather_H_sp:0001 Feather_H_sp CentralV… Butte_Cr_fa         CentralValleyfa 
##  4 Feather_H_sp:0001 Feather_H_sp CentralV… Mill_Cr_sp          CentralValleysp 
##  5 Feather_H_sp:0001 Feather_H_sp CentralV… Mill_Cr_fa          CentralValleyfa 
##  6 Feather_H_sp:0001 Feather_H_sp CentralV… UpperSacramento_R_… CentralValleysp 
##  7 Feather_H_sp:0001 Feather_H_sp CentralV… Deer_Cr_sp          CentralValleysp 
##  8 Feather_H_sp:0001 Feather_H_sp CentralV… Butte_Cr_Sp         CentralValleysp 
##  9 Feather_H_sp:0001 Feather_H_sp CentralV… Battle_Cr           CentralValleyfa 
## 10 Feather_H_sp:0001 Feather_H_sp CentralV… Mokelumne_R_fa      CentralValleyfa 
## # ℹ 90 more rows
## # ℹ 6 more variables: scaled_likelihood <dbl>, log_likelihood <dbl>,
## #   z_score <dbl>, n_non_miss_loci <int>, n_miss_loci <int>,
## #   missing_loci <list>
…
The output can be summarized by repunit as was done above:

sa_to_repu <- sa_chinook %>%
  group_by(indiv, collection, repunit, inferred_repunit) %>%
  summarise(repu_scaled_like = sum(scaled_likelihood))

## `summarise()` has grouped output by 'indiv', 'collection', 'repunit'. You can
## override using the `.groups` argument.

head(sa_to_repu, n = 200)

## # A tibble: 200 × 5
## # Groups:   indiv, collection, repunit [6]
##    indiv        collection repunit      inferred_repunit repu_scaled_like
##    <chr>        <chr>      <chr>        <chr>                       <dbl>
##  1 Alsea_R:0001 Alsea_R    NOregonCoast CaliforniaCoast          3.72e- 8
##  2 Alsea_R:0001 Alsea_R    NOregonCoast CentralValleyfa          1.54e-14
##  3 Alsea_R:0001 Alsea_R    NOregonCoast CentralValleysp          8.12e-15
##  4 Alsea_R:0001 Alsea_R    NOregonCoast CentralValleywi          1.22e-23
##  5 Alsea_R:0001 Alsea_R    NOregonCoast CohoSp                   2.09e-52
##  6 Alsea_R:0001 Alsea_R    NOregonCoast CopperR                  3.08e-20
##  7 Alsea_R:0001 Alsea_R    NOregonCoast DeschutesRfa             3.81e-10
##  8 Alsea_R:0001 Alsea_R    NOregonCoast EVancouverIs             1.02e- 8
##  9 Alsea_R:0001 Alsea_R    NOregonCoast KlamathR                 1.11e-11
## 10 Alsea_R:0001 Alsea_R    NOregonCoast LColumbiaRfa             8.52e- 8
## # ℹ 190 more rows
…
chin_sims <- assess_reference_loo(reference = chinook, 
                     gen_start_col = 5, 
                     reps = 5, 
                     mixsize = 200)

Here is what the output looks like:

chin_sims

## # A tibble: 345 × 9
##    repunit_scenario collection_scenario  iter repunit   collection true_pi     n
##    <chr>            <chr>               <int> <chr>     <chr>        <dbl> <dbl>
##  1 1                1                       1 CentralV… Feather_H… 8.42e-4     0
##  2 1                1                       1 CentralV… Butte_Cr_… 6.55e-4     0
##  3 1                1                       1 CentralV… Mill_Cr_sp 1.37e-3     0
##  4 1                1                       1 CentralV… Deer_Cr_sp 4.41e-3     1
##  5 1                1                       1 CentralV… UpperSacr… 6.25e-4     0
##  6 1                1                       1 CentralV… Feather_H… 2.89e-3     2
##  7 1                1                       1 CentralV… Butte_Cr_… 8.50e-4     0
##  8 1                1                       1 CentralV… Mill_Cr_fa 2.86e-3     1
##  9 1                1                       1 CentralV… Deer_Cr_fa 6.53e-3     0
## 10 1                1                       1 CentralV… Mokelumne… 8.99e-4     0
## # ℹ 335 more rows
## # ℹ 2 more variables: post_mean_pi <dbl>, mle_pi <dbl>
…
## Warning: `as.tibble()` was deprecated in tibble 2.0.0.
## ℹ Please use `as_tibble()` instead.
## ℹ The signature and semantics have changed, see `?as_tibble`.
## ℹ The deprecated feature was likely used in the rubias package.
##   Please report the issue at <https://github.com/eriqande/rubias/issues>.
## This warning is displayed once every 8 hours.
## Call `lifecycle::last_lifecycle_warnings()` to see where this warning was
## generated.

# print out the indiv posteriors
chin_sims_with_indivs$indiv_posteriors

## # A tibble: 69,000 × 9
##    repunit_scenario collection_scenario  iter indiv simulated_repunit
##    <chr>            <chr>               <int> <int> <chr>            
##  1 1                1                       1     1 CentralValleyfa  
##  2 1                1                       1     1 CentralValleyfa  
##  3 1                1                       1     1 CentralValleyfa  
##  4 1                1                       1     1 CentralValleyfa  
##  5 1                1                       1     1 CentralValleyfa  
##  6 1                1                       1     1 CentralValleyfa  
##  7 1                1                       1     1 CentralValleyfa  
##  8 1                1                       1     1 CentralValleyfa  
##  9 1                1                       1     1 CentralValleyfa  
## 10 1                1                       1     1 CentralValleyfa  
## # ℹ 68,990 more rows
## # ℹ 4 more variables: simulated_collection <chr>, repunit <chr>,
## #   collection <chr>, PofZ <dbl>
…
six_hundy_scenarios <- lapply(arep$repunit, function(x) tibble(repunit = x, ppn = 1.0))
names(six_hundy_scenarios) <- paste("All", arep$repunit, sep = "-")

Then, we use it, producing only 5 replicates for each scenario:

repu_hundy_results <- assess_reference_loo(reference = chinook, 
                     gen_start_col = 5, 
                     reps = 5, 
                     mixsize = 50,
                     alpha_repunit = six_hundy_scenarios,
                     alpha_collection = 10)
repu_hundy_results

## # A tibble: 2,070 × 9
##    repunit_scenario   collection_scenario  iter repunit collection true_pi     n
##    <chr>              <chr>               <int> <chr>   <chr>        <dbl> <dbl>
##  1 All-CentralValley… 1                       1 Centra… Feather_H…   0.100     5
##  2 All-CentralValley… 1                       1 Centra… Butte_Cr_…   0         0
##  3 All-CentralValley… 1                       1 Centra… Mill_Cr_sp   0         0
##  4 All-CentralValley… 1                       1 Centra… Deer_Cr_sp   0         0
##  5 All-CentralValley… 1                       1 Centra… UpperSacr…   0         0
##  6 All-CentralValley… 1                       1 Centra… Feather_H…   0.141     5
##  7 All-CentralValley… 1                       1 Centra… Butte_Cr_…   0.100     5
##  8 All-CentralValley… 1                       1 Centra… Mill_Cr_fa   0.140     5
##  9 All-CentralValley… 1                       1 Centra… Deer_Cr_fa   0.193    14
## 10 All-CentralValley… 1                       1 Centra… Mokelumne…   0.102     5
## # ℹ 2,060 more rows
## # ℹ 2 more variables: post_mean_pi <dbl>, mle_pi <dbl>
…
hundy_coll_list <- lapply(hundy_colls, function(x) tibble(collection = x, ppn = 1.0)) %>%
  setNames(paste("100%", hundy_colls, sep = "_"))

Then, do it:

hundy_coll_results <- assess_reference_loo(reference = chinook, 
                     gen_start_col = 5, 
                     reps = 5, 
                     mixsize = 50,
                     alpha_collection = hundy_coll_list)
hundy_coll_results

## # A tibble: 1,725 × 9
##    repunit_scenario collection_scenario  iter repunit   collection true_pi     n
##    <chr>            <chr>               <int> <chr>     <chr>        <dbl> <dbl>
##  1 1                100%_Deer_Cr_fa         1 CentralV… Feather_H…       0     0
##  2 1                100%_Deer_Cr_fa         1 CentralV… Butte_Cr_…       0     0
##  3 1                100%_Deer_Cr_fa         1 CentralV… Mill_Cr_sp       0     0
##  4 1                100%_Deer_Cr_fa         1 CentralV… Deer_Cr_sp       0     0
##  5 1                100%_Deer_Cr_fa         1 CentralV… UpperSacr…       0     0
##  6 1                100%_Deer_Cr_fa         1 CentralV… Feather_H…       0     0
##  7 1                100%_Deer_Cr_fa         1 CentralV… Butte_Cr_…       0     0
##  8 1                100%_Deer_Cr_fa         1 CentralV… Mill_Cr_fa       0     0
##  9 1                100%_Deer_Cr_fa         1 CentralV… Deer_Cr_fa       1    50
## 10 1                100%_Deer_Cr_fa         1 CentralV… Mokelumne…       0     0
## # ℹ 1,715 more rows
## # ℹ 2 more variables: post_mean_pi <dbl>, mle_pi <dbl>
…
