Summarizing Uncertainty on Stock-Specific Total Catch • rubias
…
After that has run, the tibble in
mix_ests_with_catch$stock_specific_total_catch_traces holds
the posterior sample of the total catch. It is structured much like the
mixing proportions trace output. The first few lines look like:

mix_ests_with_catch$stock_specific_total_catch_traces

## # A tibble: 414,000 × 5
##    mixture_collection sweep repunit         collection            SSTC
##    <chr>              <int> <chr>           <chr>                <int>
##  1 rec2                   0 CentralValleyfa Feather_H_sp           256
##  2 rec2                   0 CentralValleysp Butte_Cr_Sp             12
##  3 rec2                   0 CentralValleysp Mill_Cr_sp              71
##  4 rec2                   0 CentralValleysp Deer_Cr_sp              70
##  5 rec2                   0 CentralValleysp UpperSacramento_R_sp    83
##  6 rec2                   0 CentralValleyfa Feather_H_fa           323
##  7 rec2                   0 CentralValleyfa Butte_Cr_fa            399
##  8 rec2                   0 CentralValleyfa Mill_Cr_fa             250
##  9 rec2                   0 CentralValleyfa Deer_Cr_fa             316
## 10 rec2                   0 CentralValleyfa Mokelumne_R_fa         322
## # ℹ 413,990 more rows
…
